…
<img src="man/figures/README-plot-2.png" width="100%" />

Recommended colors
------------------

Filtering to a decent set of Lego colors that are relatively easy to acquire online at BrickLink.com for simple brick and/or plate parts can be done using the `recommended` column in the `legocolors` dataset. This logical column is originally derived using the following criteria:

``` r
library(dplyr)
rec <- arrange(legocolors, desc(bl_bp)) %>%
  filter(is.na(year_retired) & material == "solid" & bl_bp > 0.1) %>%
  select(bl_name, bl_bp)

distinct(rec)
#> # A tibble: 36 x 2
#>    bl_name           bl_bp
#>    <chr>             <dbl>
#>  1 White             1    
#>  2 Black             0.962
#>  3 Light Bluish Gray 0.927
#>  4 Red               0.912
#>  5 Dark Bluish Gray  0.896
#>  6 Tan               0.851
#>  7 Blue              0.803
#>  8 Yellow            0.797
#>  9 Reddish Brown     0.731
#> 10 Green             0.679
#> # ... with 26 more rows
…
